{
  "iisSettings": {
    "windowsAuthentication": false,
    "anonymousAuthentication": true,
    "iisExpress": {
      "applicationUrl": "http://localhost:59224/",
      "sslPort": 0
    }
  },
  "profiles": {
    "IIS Express": {
      "commandName": "IISExpress",
      "launchBrowser": false,
      "launchUrl": "api/values",
      "environmentVariables": {
        "ASPNETCORE_ENVIRONMENT": "Development"
      }
    },
    "ChannelVN.IMS2.WebApi ChinhNB": {
      "commandName": "Project",
      "launchBrowser": false,
      "launchUrl": "api/values",
      "environmentVariables": {
        "ASPNETCORE_ENVIRONMENT": "ChinhNB"
      },
      "applicationUrl": "http://localhost:8093/"
    },
    "ChannelVN.IMS2.WebApi Development": {
      "commandName": "Project",
      "launchBrowser": false,
      "launchUrl": "api/values",
      "environmentVariables": {
        "ASPNETCORE_ENVIRONMENT": "Development"
      },
      "applicationUrl": "http://localhost:8093/"
    },
    "ChannelVN.IMS2.WebApi ThuyCV": {
      "commandName": "Project",
      "launchBrowser": false,
      "launchUrl": "api/values",
      "environmentVariables": {
        "ASPNETCORE_ENVIRONMENT": "ThuyCV"
      },
      "applicationUrl": "http://localhost:8093/"
    },
    "ChannelVN.IMS2.WebApi Test": {
      "commandName": "Project",
      "launchBrowser": false,
      "launchUrl": "api/values",
      "environmentVariables": {
        "ASPNETCORE_ENVIRONMENT": "Test"
      },
      "applicationUrl": "http://localhost:8093/"
    },
    "ChannelVN.IMS2.WebApi Staging": {
      "commandName": "Project",
      "launchBrowser": false,
      "launchUrl": "api/values",
      "environmentVariables": {
        "ASPNETCORE_ENVIRONMENT": "Staging"
      },
      "applicationUrl": "http://localhost:8093/"
    },
    "ChannelVN.IMS2.WebApi Production": {
      "commandName": "Project",
      "launchBrowser": false,
      "launchUrl": "api/values",
      "environmentVariables": {
        "ASPNETCORE_ENVIRONMENT": "Production"
      },
      "applicationUrl": "http://localhost:8093/"
    }
  }
}
